--------------------------------------------------------------------------
Primary job  terminated normally, but 1 process returned
a non-zero exit code. Per user-direction, the job has been aborted.
--------------------------------------------------------------------------
--------------------------------------------------------------------------
mpirun noticed that process rank 31 with PID 9992 on node 10.128.0.20 exited on signal 9 (Killed).
--------------------------------------------------------------------------
