
Program received signal SIGSEGV: Segmentation fault - invalid memory reference.

Program received signal SIGSEGV: Segmentation fault - invalid memory reference.

Backtrace for this error:

Backtrace for this error:

Program received signal SIGSEGV: Segmentation fault - invalid memory reference.

Backtrace for this error:

Program received signal SIGSEGV: Segmentation fault - invalid memory reference.

Program received signal SIGSEGV: Segmentation fault - invalid memory reference.

Backtrace for this error:

Program received signal SIGSEGV: Segmentation fault - invalid memory reference.

Program received signal SIGSEGV: Segmentation fault - invalid memory reference.

Program received signal SIGSEGV: Segmentation fault - invalid memory reference.

Backtrace for this error:

Program received signal SIGSEGV: Segmentation fault - invalid memory reference.

Backtrace for this error:

Program received signal SIGSEGV: Segmentation fault - invalid memory reference.

Program received signal SIGSEGV: Segmentation fault - invalid memory reference.

Program received signal SIGSEGV: Segmentation fault - invalid memory reference.

Backtrace for this error:

Program received signal SIGSEGV: Segmentation fault - invalid memory reference.

Program received signal SIGSEGV: Segmentation fault - invalid memory reference.

Program received signal SIGSEGV: Segmentation fault - invalid memory reference.

Program received signal SIGSEGV: Segmentation fault - invalid memory reference.

Backtrace for this error:

Backtrace for this error:

Program received signal SIGSEGV: Segmentation fault - invalid memory reference.

Backtrace for this error:

Program received signal SIGSEGV: Segmentation fault - invalid memory reference.

Backtrace for this error:

Program received signal SIGSEGV: Segmentation fault - invalid memory reference.

Program received signal SIGSEGV: Segmentation fault - invalid memory reference.

Backtrace for this error:

Program received signal SIGSEGV: Segmentation fault - invalid memory reference.

Backtrace for this error:

Program received signal SIGSEGV: Segmentation fault - invalid memory reference.

Backtrace for this error:

Program received signal SIGSEGV: Segmentation fault - invalid memory reference.

Backtrace for this error:

Program received signal SIGSEGV: Segmentation fault - invalid memory reference.

Program received signal SIGSEGV: Segmentation fault - invalid memory reference.

Program received signal SIGSEGV: Segmentation fault - invalid memory reference.

Program received signal SIGSEGV: Segmentation fault - invalid memory reference.

Backtrace for this error:

Program received signal SIGSEGV: Segmentation fault - invalid memory reference.

Program received signal SIGSEGV: Segmentation fault - invalid memory reference.

Backtrace for this error:

Backtrace for this error:

Program received signal SIGSEGV: Segmentation fault - invalid memory reference.

Backtrace for this error:

Backtrace for this error:

Backtrace for this error:

Backtrace for this error:

Backtrace for this error:

Backtrace for this error:

Program received signal SIGSEGV: Segmentation fault - invalid memory reference.

Program received signal SIGSEGV: Segmentation fault - invalid memory reference.

Backtrace for this error:

Backtrace for this error:

Backtrace for this error:

Backtrace for this error:

Backtrace for this error:

Backtrace for this error:

Backtrace for this error:

Backtrace for this error:
#0  0x7fc6a43ff8da
#0  0x7fabb1d468da
#0  0x7efff4a958da
#1  0x7efff4a94ae3
#2  0x7efff46ec83f
#3  0x7efff4811b0d
#4  0x562f79613560
#5  0x562f7961fa63
#6  0x562f7961240e
#7  0x7efff46d909a
#8  0x562f79612449
#9  0xffffffffffffffff
#0  0x7f6a21d368da
#1  0x7f6a21d35ae3
#2  0x7f6a2198d83f
#3  0x7f6a21ab2b0d
#4  0x564ff061d560
#5  0x564ff0629a63
#6  0x564ff061c40e
#7  0x7f6a2197a09a
#8  0x564ff061c449
#9  0xffffffffffffffff
#0  0x7f60484188da
#1  0x7f6048417ae3
#2  0x7f604806f83f
#3  0x7f6048194b0d
#4  0x563a44189560
#5  0x563a44195a63
#6  0x563a4418840e
#7  0x7f604805c09a
#8  0x563a44188449
#9  0xffffffffffffffff
#0  0x7efc6f7b58da
#0  0x7f93785408da
#1  0x7efc6f7b4ae3
#0  0x7f490cc588da
#1  0x7f490cc57ae3
#2  0x7f490c8af83f
#3  0x7f490c9d4b0d
#4  0x564546350560
#5  0x56454635ca63
#6  0x56454634f40e
#7  0x7f490c89c09a
#8  0x56454634f449
#9  0xffffffffffffffff
#0  0x7fe105b108da
#1  0x7fe105b0fae3
#2  0x7fe10576783f
#3  0x7fe10588cb0d
#4  0x564a5488a560
#5  0x564a54896a63
#6  0x564a5488940e
#7  0x7fe10575409a
#8  0x564a54889449
#9  0xffffffffffffffff
#1  0x7f937853fae3
#0  0x7f33a94fc8da
#2  0x7efc6f40c83f
#1  0x7f33a94fbae3
#3  0x7efc6f531b0d
#2  0x7f937819783f
#4  0x5592ac73e560
#3  0x7f93782bcb0d
#2  0x7f33a915383f
#5  0x5592ac74aa63
#6  0x5592ac73d40e
#4  0x5582400cd560
#3  0x7f33a9278b0d
#4  0x560aeb67c560
#5  0x5582400d9a63
#7  0x7efc6f3f909a
#6  0x5582400cc40e
#5  0x560aeb688a63
#7  0x7f937818409a
#6  0x560aeb67b40e
#7  0x7f33a914009a
#8  0x5592ac73d449
#8  0x5582400cc449
#8  0x560aeb67b449
#9  0xffffffffffffffff
#9  0xffffffffffffffff
#9  0xffffffffffffffff
--------------------------------------------------------------------------
Primary job  terminated normally, but 1 process returned
a non-zero exit code. Per user-direction, the job has been aborted.
--------------------------------------------------------------------------
#1  0x7fc6a43feae3
#0  0x7f3dd6a4f8da
#1  0x7fabb1d45ae3
#0  0x7f2fd427b8da
#1  0x7f2fd427aae3
#2  0x7f2fd3ed283f
#3  0x7f2fd3ff7b0d
#4  0x5574ea2fe560
#5  0x5574ea30aa63
#6  0x5574ea2fd40e
#7  0x7f2fd3ebf09a
#8  0x5574ea2fd449
#9  0xffffffffffffffff
#0  0x7f8f58db38da
#2  0x7fc6a405683f
#0  0x7f11a525e8da
#1  0x7f11a525dae3
#2  0x7f11a4eb583f
#3  0x7f11a4fdab0d
#4  0x55f39b0ee560
#5  0x55f39b0faa63
#6  0x55f39b0ed40e
#7  0x7f11a4ea209a
#8  0x55f39b0ed449
#9  0xffffffffffffffff
#2  0x7fabb199d83f
#3  0x7fabb1ac2b0d
#1  0x7f8f58db2ae3
#3  0x7fc6a417bb0d
#1  0x7f3dd6a4eae3
#4  0x557d127ba560
#2  0x7f3dd66a683f
#4  0x5630f92ce560
#0  0x7fbdf27598da
#1  0x7fbdf2758ae3
#2  0x7fbdf23b083f
#3  0x7fbdf24d5b0d
#4  0x564205284560
#5  0x564205290a63
#6  0x56420528340e
#7  0x7fbdf239d09a
#8  0x564205283449
#9  0xffffffffffffffff
#2  0x7f8f58a0a83f
#0  0x7f1411a088da
#1  0x7f1411a07ae3
#2  0x7f141165f83f
#3  0x7f1411784b0d
#4  0x55fbdd55b560
#5  0x55fbdd567a63
#6  0x55fbdd55a40e
#7  0x7f141164c09a
#8  0x55fbdd55a449
#9  0xffffffffffffffff
#5  0x557d127c6a63
#3  0x7f3dd67cbb0d
#5  0x5630f92daa63
#0  0x7f387923f8da
#3  0x7f8f58b2fb0d
#0  0x7f0b8e2ba8da
#6  0x557d127b940e
#0  0x7f5922ff88da
#4  0x5638cd932560
#6  0x5630f92cd40e
#1  0x7f387923eae3
#4  0x55e9dbae5560
#1  0x7f0b8e2b9ae3
#7  0x7fc6a404309a
#0  0x7ffa9cd7e8da
#1  0x7ffa9cd7dae3
#2  0x7ffa9c9d583f
#3  0x7ffa9cafab0d
#4  0x56112a1c2560
#5  0x56112a1cea63
#6  0x56112a1c140e
#7  0x7ffa9c9c209a
#8  0x56112a1c1449
#9  0xffffffffffffffff
#5  0x5638cd93ea63
#7  0x7fabb198a09a
#2  0x7f3878e9683f
#5  0x55e9dbaf1a63
#2  0x7f0b8df1183f
#8  0x557d127b9449
#1  0x7f5922ff7ae3
#6  0x5638cd93140e
#8  0x5630f92cd449
#3  0x7f3878fbbb0d
#6  0x55e9dbae440e
#0  0x7fc9698af8da
#3  0x7f0b8e036b0d
#2  0x7f5922c4f83f
#7  0x7f3dd669309a
#9  0xffffffffffffffff
#4  0x55a6ebe12560
#7  0x7f8f589f709a
#0  0x7ff0c373f8da
#1  0x7ff0c373eae3
#2  0x7ff0c339683f
#3  0x7ff0c34bbb0d
#4  0x5580687f4560
#5  0x558068800a63
#6  0x5580687f340e
#7  0x7ff0c338309a
#8  0x5580687f3449
#9  0xffffffffffffffff
#4  0x55ed39b3e560
#9  0xffffffffffffffff
#3  0x7f5922d74b0d
#8  0x5638cd931449
#5  0x55a6ebe1ea63
#0  0x7f98c1d878da
#1  0x7f98c1d86ae3
#2  0x7f98c19de83f
#3  0x7f98c1b03b0d
#4  0x56443e720560
#5  0x56443e72ca63
#6  0x56443e71f40e
#7  0x7f98c19cb09a
#8  0x56443e71f449
#9  0xffffffffffffffff
#8  0x55e9dbae4449
#1  0x7fc9698aeae3
#5  0x55ed39b4aa63
#6  0x55a6ebe1140e
#0  0x7f285c19a8da
#9  0xffffffffffffffff
#2  0x7fc96950683f
#6  0x55ed39b3d40e
#0  0x7f41dae3f8da
#1  0x7f41dae3eae3
#2  0x7f41daa9683f
#3  0x7f41dabbbb0d
#4  0x559b2b17a560
#5  0x559b2b186a63
#6  0x559b2b17940e
#7  0x7f41daa8309a
#8  0x559b2b179449
#9  0xffffffffffffffff
#4  0x5624e5ffa560
#9  0xffffffffffffffff
#3  0x7fc96962bb0d
#7  0x7f0b8defe09a
#0  0x7f73b095c8da
#5  0x5624e6006a63
#7  0x7f3878e8309a
#1  0x7f285c199ae3
#6  0x5624e5ff940e
#8  0x55a6ebe11449
#2  0x7f285bdf183f
#4  0x560e6b9a7560
#8  0x55ed39b3d449
#1  0x7f73b095bae3
#9  0xffffffffffffffff
#3  0x7f285bf16b0d
#5  0x560e6b9b3a63
#9  0xffffffffffffffff
#2  0x7f73b05b383f
#7  0x7f5922c3c09a
#8  0x5624e5ff9449
#4  0x560c4824d560
#6  0x560e6b9a640e
#3  0x7f73b06d8b0d
#5  0x560c48259a63
#7  0x7fc9694f309a
#4  0x55bbdcc03560
#5  0x55bbdcc0fa63
#6  0x560c4824c40e
#8  0x560e6b9a6449
#7  0x7f285bdde09a
#9  0xffffffffffffffff
#6  0x55bbdcc0240e
#8  0x560c4824c449
#7  0x7f73b05a009a
#8  0x55bbdcc02449
#9  0xffffffffffffffff
#9  0xffffffffffffffff
#0  0x7f28270ea8da
#1  0x7f28270e9ae3
#2  0x7f2826d4183f
#3  0x7f2826e66b0d
#4  0x55b9a6ae4560
#5  0x55b9a6af0a63
#6  0x55b9a6ae340e
#7  0x7f2826d2e09a
#8  0x55b9a6ae3449
#9  0xffffffffffffffff
#0  0x7fae954048da
#1  0x7fae95403ae3
#2  0x7fae9505b83f
#3  0x7fae95180b0d
#4  0x55e6ea79f560
#5  0x55e6ea7aba63
#6  0x55e6ea79e40e
#7  0x7fae9504809a
#8  0x55e6ea79e449
#9  0xffffffffffffffff
#0  0x7fb40e4b88da
#1  0x7fb40e4b7ae3
#2  0x7fb40e10f83f
#3  0x7fb40e234b0d
#4  0x55f47aa91560
#5  0x55f47aa9da63
#6  0x55f47aa9040e
#7  0x7fb40e0fc09a
#8  0x55f47aa90449
#9  0xffffffffffffffff
#0  0x7f892214f8da
#9  0xffffffffffffffff
#0  0x7fe2354e18da
#0  0x7f5b4030f8da
#1  0x7f5b4030eae3
#2  0x7f5b3ff6683f
#3  0x7f5b4008bb0d
#4  0x55b5fcfb2560
#5  0x55b5fcfbea63
#6  0x55b5fcfb140e
#7  0x7f5b3ff5309a
#8  0x55b5fcfb1449
#9  0xffffffffffffffff
#1  0x7f892214eae3
#1  0x7fe2354e0ae3
#2  0x7fe23513883f
#2  0x7f8921da683f
#3  0x7fe23525db0d
#3  0x7f8921ecbb0d
#4  0x55e3a8752560
#4  0x55781027d560
#5  0x55e3a875ea63
#5  0x557810289a63
#6  0x55e3a875140e
#6  0x55781027c40e
#7  0x7fe23512509a
#7  0x7f8921d9309a
#8  0x55e3a8751449
#8  0x55781027c449
#9  0xffffffffffffffff
#9  0xffffffffffffffff
--------------------------------------------------------------------------
mpirun noticed that process rank 18 with PID 10175 on node 10.128.0.14 exited on signal 11 (Segmentation fault).
--------------------------------------------------------------------------
