--------------------------------------------------------------------------
Primary job  terminated normally, but 1 process returned
a non-zero exit code. Per user-direction, the job has been aborted.
--------------------------------------------------------------------------
[instance-12][[24334,1],9][btl_tcp_frag.c:137:mca_btl_tcp_frag_send] mca_btl_tcp_frag_send: writev failed: Connection reset by peer (104)
--------------------------------------------------------------------------
An MPI communication peer process has unexpectedly disconnected.  This
usually indicates a failure in the peer process (e.g., a crash or
otherwise exiting without calling MPI_FINALIZE first).

Although this local MPI process will likely now behave unpredictably
(it may even hang or crash), the root cause of this problem is the
failure of the peer -- that is what you need to investigate.  For
example, there may be a core file that you can examine.  More
generally: such peer hangups are frequently caused by application bugs
or other external events.

  Local host: instance-8
  Local PID:  10145
  Peer host:  instance-0
--------------------------------------------------------------------------
--------------------------------------------------------------------------
WARNING: Open MPI failed to TCP connect to a peer MPI process.  This
should not happen.

Your Open MPI job may now fail.

  Local host: instance-5
  PID:        10143
  Message:    connect() to 10.128.0.15:1028 failed
  Error:      Cannot allocate memory (12)
--------------------------------------------------------------------------
[instance-5:10138] PMIX ERROR: UNREACHABLE in file ../../../src/server/pmix_server.c at line 2079
[warn] Epoll MOD(1) on fd 23 failed. Old events were 6; read change was 0 (none); write change was 2 (del); close change was 0 (none): Bad file descriptor
[instance-14][[24334,1],13][btl_tcp_frag.c:137:mca_btl_tcp_frag_send] mca_btl_tcp_frag_send: writev failed: Connection reset by peer (104)
[instance-6:10109] PMIX ERROR: UNREACHABLE in file ../../../src/server/pmix_server.c at line 2079
--------------------------------------------------------------------------
mpirun noticed that process rank 10 with PID 10144 on node 10.128.0.24 exited on signal 9 (Killed).
--------------------------------------------------------------------------
[instance-0:12054] 3 more processes have sent help message help-mpi-btl-tcp.txt / client connect fail
[instance-0:12054] Set MCA parameter "orte_base_help_aggregate" to 0 to see all help / error messages
