 Error encountered in allocating space
 Error encountered in allocating space
 Error encountered in allocating space
 Error encountered in allocating space
 Error encountered in allocating space
 Error encountered in allocating space
 Error encountered in allocating space
 Error encountered in allocating space
 Error encountered in allocating space
 Error encountered in allocating space
 Error encountered in allocating space
 Error encountered in allocating space
 Error encountered in allocating space
 Error encountered in allocating space
 Error encountered in allocating space
 Error encountered in allocating space
