Warning: Permanently added '10.128.15.242' (ECDSA) to the list of known hosts.
Warning: Permanently added '10.128.15.240' (ECDSA) to the list of known hosts.
Warning: Permanently added '10.128.15.244' (ECDSA) to the list of known hosts.
Warning: Permanently added '10.128.15.243' (ECDSA) to the list of known hosts.
Warning: Permanently added '10.128.0.10' (ECDSA) to the list of known hosts.
Warning: Permanently added '10.128.0.9' (ECDSA) to the list of known hosts.
Warning: Permanently added '10.128.15.235' (ECDSA) to the list of known hosts.
Warning: Permanently added '10.128.15.241' (ECDSA) to the list of known hosts.
Warning: Permanently added '10.128.15.239' (ECDSA) to the list of known hosts.
Warning: Permanently added '10.128.0.8' (ECDSA) to the list of known hosts.
Warning: Permanently added '10.128.15.236' (ECDSA) to the list of known hosts.
Warning: Permanently added '10.128.15.237' (ECDSA) to the list of known hosts.
Warning: Permanently added '10.128.15.238' (ECDSA) to the list of known hosts.
